{
    "href": "https://api.spotify.com/v1/me/top/artists?limit=5&offset=5&time_range=long_term",
    "items": [
        {
            "external_urls": {
                "spotify": "https://open.spotify.com/artist/17Zu03OgBVxgLxWmRUyNOJ"
            },
            "followers": {
                "href": null,
                "total": 176608
            },
            "genres": [
                "abstract beats",
                "alternative hip hop",
                "alternative r&b",
                "hip hop",
                "indie soul",
                "underground hip hop",
                "wonky"
            ],
            "href": "https://api.spotify.com/v1/artists/17Zu03OgBVxgLxWmRUyNOJ",
            "id": "17Zu03OgBVxgLxWmRUyNOJ",
            "images": [
                {
                    "height": 640,
                    "url": "https://i.scdn.co/image/ab6761610000e5eb8e0147d29ac3c4f161924696",
                    "width": 640
                },
                {
                    "height": 320,
                    "url": "https://i.scdn.co/image/ab676161000051748e0147d29ac3c4f161924696",
                    "width": 320
                },
                {
                    "height": 160,
                    "url": "https://i.scdn.co/image/ab6761610000f1788e0147d29ac3c4f161924696",
                    "width": 160
                }
            ],
            "name": "Knxwledge",
            "popularity": 61,
            "type": "artist",
            "uri": "spotify:artist:17Zu03OgBVxgLxWmRUyNOJ"
        },
        {
            "external_urls": {
                "spotify": "https://open.spotify.com/artist/0Y4inQK6OespitzD6ijMwb"
            },
            "followers": {
                "href": null,
                "total": 955777
            },
            "genres": [
                "alternative hip hop",
                "gangster rap",
                "hip hop",
                "indiana hip hop",
                "rap",
                "southern hip hop",
                "trap",
                "underground hip hop"
            ],
            "href": "https://api.spotify.com/v1/artists/0Y4inQK6OespitzD6ijMwb",
            "id": "0Y4inQK6OespitzD6ijMwb",
            "images": [
                {
                    "height": 640,
                    "url": "https://i.scdn.co/image/ab6761610000e5ebf08a8c522777fc9d3c5095c3",
                    "width": 640
                },
                {
                    "height": 320,
                    "url": "https://i.scdn.co/image/ab67616100005174f08a8c522777fc9d3c5095c3",
                    "width": 320
                },
                {
                    "height": 160,
                    "url": "https://i.scdn.co/image/ab6761610000f178f08a8c522777fc9d3c5095c3",
                    "width": 160
                }
            ],
            "name": "Freddie Gibbs",
            "popularity": 73,
            "type": "artist",
            "uri": "spotify:artist:0Y4inQK6OespitzD6ijMwb"
        },
        {
            "external_urls": {
                "spotify": "https://open.spotify.com/artist/7yeFMUrYTY5cAZx0GKXnti"
            },
            "followers": {
                "href": null,
                "total": 315024
            },
            "genres": [
                "french hip hop",
                "pop urbaine"
            ],
            "href": "https://api.spotify.com/v1/artists/7yeFMUrYTY5cAZx0GKXnti",
            "id": "7yeFMUrYTY5cAZx0GKXnti",
            "images": [
                {
                    "height": 640,
                    "url": "https://i.scdn.co/image/ab6761610000e5eb1fdfcc191a38d1e1f0e526b3",
                    "width": 640
                },
                {
                    "height": 320,
                    "url": "https://i.scdn.co/image/ab676161000051741fdfcc191a38d1e1f0e526b3",
                    "width": 320
                },
                {
                    "height": 160,
                    "url": "https://i.scdn.co/image/ab6761610000f1781fdfcc191a38d1e1f0e526b3",
                    "width": 160
                }
            ],
            "name": "Alpha Wann",
            "popularity": 67,
            "type": "artist",
            "uri": "spotify:artist:7yeFMUrYTY5cAZx0GKXnti"
        },
        {
            "external_urls": {
                "spotify": "https://open.spotify.com/artist/29XOeO6KIWxGthejQqn793"
            },
            "followers": {
                "href": null,
                "total": 682954
            },
            "genres": [
                "afrofuturism",
                "alternative hip hop",
                "electronica",
                "escape room",
                "experimental hip hop",
                "glitch",
                "glitch hop",
                "hip hop",
                "intelligent dance music",
                "jazztronica",
                "psychedelic hip hop",
                "wonky"
            ],
            "href": "https://api.spotify.com/v1/artists/29XOeO6KIWxGthejQqn793",
            "id": "29XOeO6KIWxGthejQqn793",
            "images": [
                {
                    "height": 640,
                    "url": "https://i.scdn.co/image/ab6761610000e5eb8d1330444720d6edffa07068",
                    "width": 640
                },
                {
                    "height": 320,
                    "url": "https://i.scdn.co/image/ab676161000051748d1330444720d6edffa07068",
                    "width": 320
                },
                {
                    "height": 160,
                    "url": "https://i.scdn.co/image/ab6761610000f1788d1330444720d6edffa07068",
                    "width": 160
                }
            ],
            "name": "Flying Lotus",
            "popularity": 61,
            "type": "artist",
            "uri": "spotify:artist:29XOeO6KIWxGthejQqn793"
        },
        {
            "external_urls": {
                "spotify": "https://open.spotify.com/artist/20qISvAhX20dpIbOOzGK3q"
            },
            "followers": {
                "href": null,
                "total": 2785293
            },
            "genres": [
                "conscious hip hop",
                "east coast hip hop",
                "gangster rap",
                "hardcore hip hop",
                "hip hop",
                "queens hip hop",
                "rap"
            ],
            "href": "https://api.spotify.com/v1/artists/20qISvAhX20dpIbOOzGK3q",
            "id": "20qISvAhX20dpIbOOzGK3q",
            "images": [
                {
                    "height": 640,
                    "url": "https://i.scdn.co/image/ab6761610000e5ebf7d9deb32a290a5ba574ee1c",
                    "width": 640
                },
                {
                    "height": 320,
                    "url": "https://i.scdn.co/image/ab67616100005174f7d9deb32a290a5ba574ee1c",
                    "width": 320
                },
                {
                    "height": 160,
                    "url": "https://i.scdn.co/image/ab6761610000f178f7d9deb32a290a5ba574ee1c",
                    "width": 160
                }
            ],
            "name": "Nas",
            "popularity": 77,
            "type": "artist",
            "uri": "spotify:artist:20qISvAhX20dpIbOOzGK3q"
        }
    ],
    "limit": 5,
    "next": "https://api.spotify.com/v1/me/top/artists?limit=5&offset=10&time_range=long_term",
    "offset": 5,
    "previous": "https://api.spotify.com/v1/me/top/artists?limit=5&offset=0&time_range=long_term",
    "total": 50
}